module github.com/ictlife/infra-interview-may-2020/backend

go 1.13

require (
	github.com/gin-gonic/contrib v0.0.0-20191209060500-d6e26eeaa607
	github.com/gin-gonic/gin v1.6.3
	github.com/lib/pq v1.5.2
	github.com/sirupsen/logrus v1.6.0
)
